གསར་འགོད་ལས་རིགས་ཐོག་གཟེངས་རྟགས་ཐོབ་མྱོང་མཁན་ཨེ་ཤེ་ཡ་རང་དབང་རླུང་འཕྲིན་ཁང་བརྒྱུད་བོད་གཙོས་པའི་ཨེ་ཤེ་ཡ་ཁུལ་གྱི་གསར་འགྱུར་ཁག་དུས་ཐོག་ཏུ་གསན་རོགས་གནང་།  འདི་ག་གསར་ཁང་གི་སྟབས་བདེ་མཉེན་ཆས་བརྒྱུད་ནས་ས་གནས་གང་དུ་བཞུགས་ཀྱང་དུས་ཐོག་གསར་འགྱུར་ལ་གཟིགས་ཐུབ་པ་མ་ཟད། པོཌ་ཁཱསཊ་དང་། བརྙན་འཕྲིན།  དམིགས་བསལ་ལས་རིམ་བཅས་གསན་གཟིགས་ཐུབ་པའི་ཆ་རྐྱེན་བསྐྲུན་ཡོད།

ཆེད་སྒྲིག་ལས་ཚན།
- རླུང་འཕྲིན་ཐད་སྲིང་ལས་རིམ་དང་དགོས་འདུན་བཏོན་པའི་་པོཌ་ཁཱསཊ།
- དྲ་ལམ་མེད་སྐབས་ལྟ་ཉན་ཐུབ་ཆེད་རྩོམ་ཡིག་དང་། བརྙན་པར། སྒྲ་སོགས་ཉར་ཚགས།
- སྤྱི་ཚོགས་དྲ་ལམ་གང་རུང་ཐོག་གནས་ཚུལ་བརྒྱུད་སྤེལ་གནང་རོགས།
- ལག་ཁྱེར་ཁ་པར་གྱི་ནུས་ཤུགས་ཉུང་སྤྱོད་དང་སྟབས་བདེ་འཚོལ་བཤེར་མཐུན་རྐྱེན་ལྡན་པ།

ཨེ་ཤེ་ཡ་རང་དབང་རླུང་འཕྲིན་ཁང་གིས་ཁྱེད་རྣམ་པའི་སྒེར་གྱི་གནས་ཚུལ་དང་།  བདེ་འཇགས་སྲུང་སྐྱོབ་གཙོ་བཟུང་གིས་སྟབས་བདེའི་མཉེན་ཆས་འདི་བྱུས་འགོད་བྱས་ཡོད།  ཞིབ་ཕྲ་མཁྱེན་རྟོགས་སླད་ང་ཚོའི་གསང་རྒྱའི་སྲིད་བྱུས་ལ་གཟིགས་རོགས། (https://www.rfa.org/about/info/privacy-policy.html)
